Place,Name,Sex,BirthDate,Age,Country,Equipment,Division,BodyweightKg,WeightClassKg,Squat1Kg,Squat2Kg,Squat3Kg,Best3SquatKg,Bench1Kg,Bench2Kg,Bench3Kg,Best3BenchKg,Deadlift1Kg,Deadlift2Kg,Deadlift3Kg,Best3DeadliftKg,TotalKg,Event
1,Emma Brennan,F,1980-10-15,,N.Ireland,Raw,FR-O,,,105,-110,-110,105,62.5,-65,-65,62.5,120,125,130,130,297.5,SBD
1,Katherine Ui Bhriain,F,1989-03-17,,N.Ireland,Raw,FR-O,56.1,57,40,45,47.5,47.5,-40,40,42.5,42.5,60,65,70,70,160,SBD
1,Sarah Coulter,F,1995-02-11,,N.Ireland,Raw,FR-O,62.1,63,110,115,120,120,45,50,55,55,127.5,132.5,135,135,310,SBD
2,Michelle Breen,F,1971-02-19,,N.Ireland,Raw,FR-O,62.7,63,110,115,117.5,117.5,50,55,-58,55,-127.5,127.5,135,135,307.5,SBD
3,Ashleigh Hall,F,1995-02-11,,N.Ireland,Raw,FR-O,62.8,63,85,90,95,95,50,55,60,60,105,112.5,117.5,117.5,272.5,SBD
1,Lauren Elder,F,1989-07-04,,N.Ireland,Raw,FR-O,68.7,69,130,140,145,145,62.5,65,67.5,67.5,162.5,172.5,-180,172.5,385,SBD
2,Ruth Moore,F,1988-01-14,,N.Ireland,Raw,FR-O,67,69,117.5,-127.5,-130,117.5,62.5,67.5,-72.5,67.5,145,155,165,165,350,SBD
1,Denise Galbraith,F,1983-04-16,,N.Ireland,Raw,FR-O,73.8,76,142.5,152.5,-160,152.5,67.5,-75,75,75,145,155,-160,155,382.5,SBD
2,Beth Ingram,F,1997-06-10,,N.Ireland,Raw,FR-O,70.7,76,80,85,87.5,87.5,52.5,55,57.5,57.5,90,100,110,110,255,SBD
1,Claire Reid,F,1989-05-29,,N.Ireland,Raw,FR-O,99.7,84+,-140,-140,140,140,75,80,85,85,175,187.5,200,200,425,SBD
2,Cassie Fenton,F,1989-09-18,,N.Ireland,Raw,FR-O,94.6,84+,165,172.5,-180.5,172.5,60,67.5,-70,67.5,155,165,170,170,410,SBD
3,Una Ferguson,F,1967-02-11,,N.Ireland,Raw,FR-O,89,84+,95,100,105,105,45,50,-52.5,50,110,115,120,120,275,SBD
1,Orlaleigh Mc Atamney,F,1999-06-10,,N.Ireland,Raw,F-C-N,56.1,57,80,85,95,95,-42.5,45,47.5,47.5,100,105,112.5,112.5,255,SBD
2,Kate Rooney,F,1978-07-20,,N.Ireland,Raw,F-C-N,52.7,57,-82.5,82.5,87.5,87.5,42.5,-45,47.5,47.5,100,107.5,110,110,245,SBD
3,Laura Mullaney,F,1992-07-10,,N.Ireland,Raw,F-C-N,55.6,57,67.5,70,-75,70,45,-47.5,-50,45,110,115,120,120,235,SBD
1,Jody Stevens,F,2001-01-26,,N.Ireland,Raw,F-C-N,61.6,63,105,110,115,115,65,70,72.5,72.5,145,155,160,160,347.5,SBD
1,Catherine McBride,F,1984-01-19,,N.Ireland,Raw,F-C-N,68.2,69,95,-97.5,100,100,-60,60,65,65,132.5,135,140,140,305,SBD
1,Chloe McMullan,F,1996-10-11,,N.Ireland,Raw,F-C-N,80.9,84,110,125,135,135,70,80,-87.5,80,150,160,175,175,390,SBD
1,Ricky Morrison,M,1981-03-27,,N.Ireland,Raw,MR-M1,72.3,74,155,160,165,165,120,125,-130.5,125,170,180,190,190,480,SBD
1,Cormac Cahalane,M,1971-09-01,,N.Ireland,Raw,MR-M2,73.4,74,117.5,125,132.5,132.5,70,75,77.5,77.5,145,155,160,160,370,SBD
1,Desmond Scott,M,1941-11-02,,N.Ireland,Raw,MR-M5,72.6,74,70,80,85,85,52.5,57.5,60,60,100,110,120,120,265,SBD
1,Matthew Scanlan,M,2003-03-23,,N.Ireland,Raw,M-C-U20,52.6,53,80,95,110,110,60,75,83,83,130,150,160.5,160.5,353.5,SBD
1,James Wainwright,M,1981-03-01,,N.Ireland,Raw,MR-O,57.3,59,130,-135,-135,130,80,85,-90,85,160,165,170,170,385,SBD
1,Odhran Close,M,1998-01-17,,N.Ireland,Raw,MR-O,64.4,66,177.5,-185,185,185,92.5,100,-105,100,185,197.5,207.5,207.5,492.5,SBD
1,Ricky Morrison,M,1981-03-27,,N.Ireland,Raw,MR-O,72.3,74,155,160,165,165,120,125,-130.5,125,170,180,190,190,480,SBD
2,Michael Hannon,M,2004-06-10,,N.Ireland,Raw,MR-O,70.7,74,110,120,135,135,75,85,-90,85,-160,-180,200,200,420,SBD
3,Stuart Jess,M,2005-02-16,,N.Ireland,Raw,MR-O,71.2,74,110,125,-132.5,125,72.5,80,85,85,140,155,160,160,370,SBD
4,Cormac Cahalane,M,1971-09-01,,N.Ireland,Raw,MR-O,73.4,74,117.5,125,132.5,132.5,70,75,77.5,77.5,145,155,160,160,370,SBD
5,Desmond Scott,M,1941-11-02,,N.Ireland,Raw,MR-O,72.6,74,70,80,85,85,52.5,57.5,60,60,100,110,120,120,265,SBD
1,Jordan Gregory #1,M,1996-09-09,,N.Ireland,Raw,MR-O,80.4,83,185,195,-205,195,105,110,-115,110,225,240,250,250,555,SBD
2,Adam Johnson,M,1993-02-02,,N.Ireland,Raw,MR-O,81.5,83,-190,200,210,210,112.5,117.5,-120,117.5,210,217.5,-225,217.5,545,SBD
3,George Millar,M,,,N.Ireland,Raw,MR-O,82.1,83,175,190,200,200,110,115,120,120,225,-240,-240,225,545,SBD
4,Karl Clark,M,1993-02-28,,N.Ireland,Raw,MR-O,81.5,83,175,185,-190,185,110,115,120,120,190,200,210,210,515,SBD
5,Ryan Davidson,M,2000-09-15,,N.Ireland,Raw,MR-O,79.9,83,-160,160,175,175,-100,110,115,115,-180,-210,210,210,500,SBD
6,Patrick Lyons,M,2003-09-30,,N.Ireland,Raw,MR-O,79.1,83,135,150,165,165,87.5,-95,-100,87.5,190,210,222.5,222.5,475,SBD
7,Shane OHare,M,2002-04-18,,N.Ireland,Raw,MR-O,80.9,83,-135,140,150,150,77.5,85,-92.5,85,187.5,200,207.5,207.5,442.5,SBD
8,David Collins,M,2003-11-25,,N.Ireland,Raw,MR-O,80.5,83,135,-145,-150,135,105,-115,-115,105,-190,200,-210,200,440,SBD
1,Aaron Sloane,M,1998-08-18,,N.Ireland,Raw,MR-O,92.5,93,205,220,227.5,227.5,137.5,145,-152.5,145,255,-272.5,-272.5,255,627.5,SBD
2,Wallace Clarke,M,1969-03-20,,N.Ireland,Raw,MR-O,91.8,93,190,-210,210,210,130,140,147.5,147.5,230,245,255,255,612.5,SBD
3,Tim Higgins,M,1996-07-28,,N.Ireland,Raw,MR-O,91.4,93,-195,200,-210,200,125,-130,-130,125,215,227.5,235,235,560,SBD
4,Simon Campbell,M,,32,N.Ireland,Raw,MR-O,91.9,93,-180,-190,190,190,110,-115,115,115,210,227.5,-235,227.5,532.5,SBD
5,Calum Hanna,M,2000-12-19,,N.Ireland,Raw,MR-O,88.1,93,150,160,167.5,167.5,100,105,-107.5,105,185,195,200,200,472.5,SBD
1,David Whitley,M,1990-11-29,,N.Ireland,Raw,MR-O,103.7,105,190,200,210,210,150,155,-160,155,260,275,285,285,650,SBD
2,Peter Fyffe-McFadden,M,1972-10-05,,N.Ireland,Raw,MR-O,97,105,180,190,200,200,140,145,150,150,240,252.5,265,265,615,SBD
3,Stephen Gordan,M,1988-08-05,,N.Ireland,Raw,MR-O,100.6,105,190,202.5,-210,202.5,130,-140,-140,130,230,242.5,250,250,582.5,SBD
4,Colin Galbraith,M,1978-08-22,,N.Ireland,Raw,MR-O,95.7,105,175,-182.5,182.5,182.5,82.5,-87.5,-92.5,82.5,170,180,190,190,455,SBD
1,Nathan Neville,M,2000-02-16,,N.Ireland,Raw,MR-O,118.7,120,245,260,270,270,155,165,-172.5,165,240,250,257.5,257.5,692.5,SBD
2,Mark Moorcroft,M,1991-10-28,,N.Ireland,Raw,MR-O,111.4,120,220,230,240,240,150,160,167.5,167.5,235,245,255,255,662.5,SBD
3,Lee Orderly,M,1995-10-19,,N.Ireland,Raw,MR-O,116.2,120,-220,230,240,240,162.5,167.5,-170,167.5,230,245,-250,245,652.5,SBD
4,Kevin Smyth,M,,34,N.Ireland,Raw,MR-O,106.8,120,165,175,187.5,187.5,122.5,-130,135,135,190,200,215,215,537.5,SBD
5,Neal Campbell,M,1990-06-22,,N.Ireland,Raw,MR-O,118.2,120,175,182.5,190,190,112.5,117.5,122.5,122.5,190,200,210,210,522.5,SBD
1,Ricky Mullan,M,1974-10-28,,N.Ireland,Raw,MR-O,135.1,120+,230,245,262.5,262.5,-140,145,150,150,255,275,300,300,712.5,SBD
1,Michael Hannon,M,2004-06-10,,N.Ireland,Raw,MR-Sj,70.7,74,110,120,135,135,75,85,-90,85,-160,-180,200,200,420,SBD
2,Stuart Jess,M,2005-02-16,,N.Ireland,Raw,MR-Sj,71.2,74,110,125,-132.5,125,72.5,80,85,85,140,155,160,160,370,SBD
1,Matthew Hutchman,M,2000-02-24,,N.Ireland,Raw,M-C-N,67.9,74,110,120,125,125,90,95,100,100,130,140,-150,140,365,SBD
2,Brandon Murray,M,2006-01-26,,N.Ireland,Raw,M-C-N,71.3,74,100,110,120,120,70,75,-82.5,75,130,140,150,150,345,SBD
1,Andrew Bell,M,2002-02-04,,N.Ireland,Raw,M-C-N,79.3,83,185,195,-200,195,100,107.5,-115,107.5,215,225,-232.5,225,527.5,SBD
2,Darran Maguire,M,1997-07-12,,N.Ireland,Raw,M-C-N,77.1,83,130,140,150,150,90,95,100,100,190,200,210,210,460,SBD
1,Michael Dallat,M,1999-03-30,,N.Ireland,Raw,M-C-N,90.3,93,-155,165,175,175,-85,92.5,-100,92.5,235,250,-272.5,250,517.5,SBD
2,Robbie McMaster,M,1999-01-16,,N.Ireland,Raw,M-C-N,89.8,93,165,172.5,180,180,112.5,117.5,120,120,190,202.5,215,215,515,SBD
3,Scott Gregson,M,1996-03-17,,N.Ireland,Raw,M-C-N,90.3,93,157.5,167.5,177.5,177.5,105,110,-112.5,110,205,215,-220,215,502.5,SBD
1,Conor Kelly,M,1998-10-31,,N.Ireland,Raw,M-C-N,95,105,-210,217.5,227.5,227.5,-150,150,152.5,152.5,250,255,262.5,262.5,642.5,SBD
2,James McMaster,M,2003-05-26,,N.Ireland,Raw,M-C-N,96,105,190,205,215,215,115,-120,120,120,200,215,-230,215,550,SBD
1,Samuel Colgan,M,1992-04-20,,N.Ireland,Single-ply,M-O,107.7,120,270,-285,-300.5,270,180,-190,-190,180,240,-255,-255,240,690,SBD
