Division,WeightClassKg,Place,Name,Team,BodyweightKg,Best3SquatKg,Best3BenchKg,Best3DeadliftKg,TotalKg,Equipment,Event,Sex
Boys,51.71,1,Cooper Houston,Montgomery,51.26,102.06,58.97,102.06,263.08,Single-ply,SBD,M
Boys,51.71,2,Fabian Osoria,Pasadena Dobie,47.63,79.38,54.43,99.79,233.6,Single-ply,SBD,M
Boys,51.71,3,Mitchell Hambrick,Clute Brazoswood,50.35,79.38,52.16,99.79,231.33,Single-ply,SBD,M
Boys,51.71,DQ,Morgan Vrazel,Danbury,51.71,,,,,Single-ply,SBD,M
Boys,51.71,DQ,Michael Avelleneda,Stafford,51.71,,,,,Single-ply,SBD,M
Boys,55.79,1,Randy Holland,Clute Brazoswood,54.88,142.88,102.06,149.69,394.63,Single-ply,SBD,M
Boys,55.79,2,George Bankhead,Freeport Brazosport,53.98,147.42,63.5,151.95,362.87,Single-ply,SBD,M
Boys,55.79,3,Cecilio Hernandez,Dickinson,54.88,124.74,70.31,142.88,337.93,Single-ply,SBD,M
Boys,55.79,4,Alonzo Archibald,La Marque,54.88,115.67,65.77,129.27,310.71,Single-ply,SBD,M
Boys,59.87,1,Ja'Core Aldridge,La Marque,58.97,183.7,102.06,215.46,501.22,Single-ply,SBD,M
Boys,59.87,2,Kenny Nguyen,Dickinson,56.7,210.92,136.08,151.95,498.95,Single-ply,SBD,M
Boys,59.87,3,Michael Latapie,Palacios,59.42,149.69,124.74,176.9,451.32,Single-ply,SBD,M
Boys,59.87,4,Dylan Heaton,Montgomery,57.61,122.47,83.91,124.74,331.12,Single-ply,SBD,M
Boys,59.87,5,Mathew White,Palacios,57.61,97.52,61.23,113.4,272.16,Single-ply,SBD,M
Boys,59.87,6,David Glover,Danbury,57.15,92.99,61.23,113.4,267.62,Single-ply,SBD,M
Boys,59.87,7,Duy Tran #3,Palacios,59.87,77.11,52.16,106.59,235.87,Single-ply,SBD,M
Boys,67.13,1,Jared Wetuski,Montgomery,63.5,219.99,136.08,204.12,560.19,Single-ply,SBD,M
Boys,67.13,2,Jose Jimenez #11,Palacios,66.22,154.22,113.4,192.78,460.4,Single-ply,SBD,M
Boys,67.13,3,Steven McCartha,Montgomery,62.14,176.9,106.59,158.76,442.25,Single-ply,SBD,M
Boys,67.13,4,Thomas Bridges,Dickinson,65.77,158.76,102.06,167.83,428.64,Single-ply,SBD,M
Boys,67.13,5,Jason Hernandez,Houston Chavez,64.41,127.01,97.52,181.44,405.97,Single-ply,SBD,M
Boys,67.13,6,Osvaldo Sardina,Danbury,61.69,156.49,74.84,163.29,394.63,Single-ply,SBD,M
Boys,67.13,7,Adan Hernandez,Danbury,62.14,136.08,83.91,163.29,383.29,Single-ply,SBD,M
Boys,67.13,8,Chris Boyd #1,Freeport Brazosport,62.14,142.88,83.91,151.95,378.75,Single-ply,SBD,M
Boys,67.13,9,Genaro Rangel,Santa Fe,61.23,138.35,74.84,136.08,349.27,Single-ply,SBD,M
Boys,67.13,10,Jeff Ryan,Danbury,60.33,133.81,74.84,129.27,337.93,Single-ply,SBD,M
Boys,67.13,11,Misael Pineda,Stafford,66.22,83.91,61.23,120.2,265.35,Single-ply,SBD,M
Boys,67.13,DQ,Jesse Canell,Stafford,67.13,,,,,Single-ply,SBD,M
Boys,67.13,DQ,Justin Sanders,Santa Fe,61.23,,,,,Single-ply,SBD,M
Boys,67.13,DQ,Christian Hambright,Pasadena Memorial,67.13,,,,,Single-ply,SBD,M
Boys,67.13,DQ,Spencer Alsobrook,Danbury,67.13,,,,,Single-ply,SBD,M
Boys,74.84,1,Jesse Trevino,Houston Milby,67.59,197.31,120.2,204.12,521.63,Single-ply,SBD,M
Boys,74.84,2,Matthew Nguyen,Palacios,73.48,185.97,99.79,208.65,494.42,Single-ply,SBD,M
Boys,74.84,3,Raymond Glover,Clute Brazoswood,74.39,174.63,120.2,192.78,487.61,Single-ply,SBD,M
Boys,74.84,4,Jonathan Saenz,Clute Brazoswood,74.39,197.31,95.25,179.17,471.74,Single-ply,SBD,M
Boys,74.84,5,Travis Hill,Pasadena Memorial,70.76,158.76,99.79,181.44,439.98,Single-ply,SBD,M
Boys,74.84,6,Cole White,Freeport Brazosport,74.39,142.88,97.52,192.78,433.18,Single-ply,SBD,M
Boys,74.84,7,Alan Cooper,La Marque,70.76,147.42,88.45,158.76,394.63,Single-ply,SBD,M
Boys,74.84,8,Noah Seaman,Palacios,70.76,136.08,83.91,174.63,394.63,Single-ply,SBD,M
Boys,74.84,9,Zac Schaffer,Santa Fe,74.84,142.88,90.72,140.61,374.21,Single-ply,SBD,M
Boys,74.84,10,Phillip Benning,Freeport Brazosport,72.12,120.2,99.79,149.69,369.68,Single-ply,SBD,M
Boys,74.84,11,Michael Briones,Pasadena Dobie,69.4,127.01,92.99,142.88,362.87,Single-ply,SBD,M
Boys,74.84,12,Nathan Perkins,Palacios,69.4,117.93,92.99,142.88,353.8,Single-ply,SBD,M
Boys,74.84,DQ,Derik Toombs,Danbury,74.84,,,,,Single-ply,SBD,M
Boys,74.84,DQ,Taylor Givens,Stafford,74.84,,,,,Single-ply,SBD,M
Boys,74.84,DQ,Erick Guevera,Stafford,74.84,,,,,Single-ply,SBD,M
Boys,74.84,DQ,John Le,Dickinson,74.84,244.94,,,,Single-ply,SBD,M
Boys,82.1,1,Jessie Hooper,Montgomery,82.1,226.8,156.49,208.65,591.94,Single-ply,SBD,M
Boys,82.1,2,Victor Tran,Dickinson,77.11,240.4,136.08,204.12,580.6,Single-ply,SBD,M
Boys,82.1,3,Justin Gary,Dickinson,79.38,226.8,149.69,204.12,580.6,Single-ply,SBD,M
Boys,82.1,4,JT McLawchlin,Santa Fe,80.29,181.44,140.61,217.72,539.77,Single-ply,SBD,M
Boys,82.1,5,Chris Jackson #9,La Marque,77.11,165.56,117.93,197.31,480.81,Single-ply,SBD,M
Boys,82.1,6,Barry Authenreith,Pasadena Dobie,81.65,163.29,92.99,199.58,455.86,Single-ply,SBD,M
Boys,82.1,7,Brendan Lopez,Palacios,75.3,174.63,102.06,165.56,442.25,Single-ply,SBD,M
Boys,82.1,8,Chris Henderson #1,Pasadena Memorial,80.29,124.74,90.72,181.44,396.89,Single-ply,SBD,M
Boys,82.1,9,Patrick Scopel,Danbury,81.19,145.15,79.38,145.15,369.68,Single-ply,SBD,M
Boys,82.1,10,Rudy Trevino,Pasadena Memorial,75.3,127.01,74.84,140.61,342.46,Single-ply,SBD,M
Boys,82.1,11,Sean Peace,Pasadena Dobie,79.83,92.99,83.91,158.76,335.66,Single-ply,SBD,M
Boys,82.1,DQ,Cullen Adcock,Danbury,82.1,,,,,Single-ply,SBD,M
Boys,89.81,1,Cory James,Clute Brazoswood,89.36,210.92,102.06,204.12,517.1,Single-ply,SBD,M
Boys,89.81,2,Jamon Anderson,Montgomery,85.73,181.44,117.93,188.24,487.61,Single-ply,SBD,M
Boys,89.81,3,Jake Cole,Montgomery,83.46,176.9,104.33,172.37,453.59,Single-ply,SBD,M
Boys,89.81,4,Jared Fletcher,Freeport Brazosport,85.73,165.56,102.06,172.37,439.98,Single-ply,SBD,M
Boys,89.81,5,Johnny Reyes,Stafford,87.54,158.76,97.52,165.56,421.84,Single-ply,SBD,M
Boys,89.81,6,Andrew Gonzales #5,Pasadena Memorial,84.37,149.69,90.72,170.1,410.5,Single-ply,SBD,M
Boys,89.81,DQ,Chris Hall,Santa Fe,89.81,,,,,Single-ply,SBD,M
Boys,89.81,DQ,Eric Mexicano,Pasadena Memorial,89.81,,,,,Single-ply,SBD,M
Boys,89.81,DQ,Marcos Flores,Stafford,89.81,,,,,Single-ply,SBD,M
Boys,89.81,DQ,Juan Nava,Freeport Brazosport,89.81,,,,,Single-ply,SBD,M
Boys,89.81,DQ,Floyd Simmons,La Marque,88.45,,,,,Single-ply,SBD,M
Boys,99.79,1,Jorge Colon,Clute Brazoswood,99.34,260.82,136.08,204.12,601.01,Single-ply,SBD,M
Boys,99.79,2,Scott Duke,Dickinson,98.43,217.72,122.47,231.33,571.53,Single-ply,SBD,M
Boys,99.79,3,Daniel Lema,Clute Brazoswood,98.43,204.12,106.59,192.78,503.49,Single-ply,SBD,M
Boys,99.79,4,Juan Lopez,Palacios,92.08,158.76,111.13,201.85,471.74,Single-ply,SBD,M
Boys,99.79,5,Matthew Moore,Pasadena Memorial,95.71,181.44,90.72,181.44,453.59,Single-ply,SBD,M
Boys,99.79,6,Calub Osborn,Danbury,97.52,167.83,92.99,176.9,437.72,Single-ply,SBD,M
Boys,99.79,7,Kenneth Edwards,La Marque,98.88,129.27,97.52,147.42,374.21,Single-ply,SBD,M
Boys,99.79,DQ,David Nunez,Freeport Brazosport,99.79,,,,,Single-ply,SBD,M
Boys,99.79,DQ,Jose Aguilar,Pasadena Memorial,99.79,,,,,Single-ply,SBD,M
Boys,99.79,DQ,Dj Sweeny,Santa Fe,97.52,204.12,,,,Single-ply,SBD,M
Boys,99.79,DQ,Justin Trow,Montgomery,97.07,170.1,,,,Single-ply,SBD,M
Boys,109.77,1,Lorenzo Castaneda,Dickinson,108.41,294.84,170.1,272.16,737.09,Single-ply,SBD,M
Boys,109.77,2,Adam Aucoin,Palacios,109.32,278.96,158.76,235.87,673.58,Single-ply,SBD,M
Boys,109.77,3,Nathan Klawinsky,Montgomery,103.42,206.38,147.42,226.8,580.6,Single-ply,SBD,M
Boys,109.77,4,Michael Alvair,Freeport Brazosport,107.95,204.12,142.88,199.58,546.58,Single-ply,SBD,M
Boys,109.77,5,Dustin Castleberry,Montgomery,106.59,185.97,131.54,192.78,510.29,Single-ply,SBD,M
Boys,109.77,6,Jose Morales,Clute Brazoswood,101.6,183.7,113.4,183.7,480.81,Single-ply,SBD,M
Boys,109.77,7,Steve Lopez,Houston Chavez,102.97,181.44,106.59,185.97,474,Single-ply,SBD,M
Boys,109.77,DQ,Robert Lozano,Houston Chavez,109.77,,,,,Single-ply,SBD,M
Boys,109.77,DQ,Gunnar Girod,Clute Brazoswood,109.77,,,,,Single-ply,SBD,M
Boys,109.77,DQ,Chris Gomez,Freeport Brazosport,109.77,,,,,Single-ply,SBD,M
Boys,124.74,1,Blake Teasdale,Montgomery,117.93,183.7,154.22,199.58,537.51,Single-ply,SBD,M
Boys,124.74,2,Seth La,Pasadena Dobie,110.22,204.12,142.88,167.83,514.83,Single-ply,SBD,M
Boys,124.74,3,Adam Eubanks,Dickinson,124.74,206.38,111.13,174.63,492.15,Single-ply,SBD,M
Boys,124.74,4,Alexis Cruz,Pasadena Memorial,120.2,154.22,113.4,167.83,435.45,Single-ply,SBD,M
Boys,124.74,5,Gabe Johnson,Pasadena Memorial,115.21,154.22,108.86,158.76,421.84,Single-ply,SBD,M
Boys,124.74,6,Tristan Guerra,Pasadena Memorial,112.49,163.29,86.18,158.76,408.23,Single-ply,SBD,M
Boys,124.74,DQ,Antonio Cavazos,Pasadena Memorial,124.74,,,,,Single-ply,SBD,M
Boys,124.74,DQ,Ryan Ballew,Santa Fe,111.13,,,,,Single-ply,SBD,M
Boys,124.74,DQ,Ray Madrigal,Freeport Brazosport,124.74,,,,,Single-ply,SBD,M
Boys,124.74+,1,Tim Jenkins,Dickinson,132,331.12,163.29,249.48,743.89,Single-ply,SBD,M
Boys,124.74+,2,Trey Teague,Freeport Brazosport,148.78,294.84,129.27,260.82,684.92,Single-ply,SBD,M
Boys,124.74+,3,Byron Williams,Dickinson,151.95,247.21,140.61,256.28,644.1,Single-ply,SBD,M
Boys,124.74+,4,Joe Lloreda,Dickinson,133.81,249.48,165.56,226.8,641.83,Single-ply,SBD,M
Boys,124.74+,5,Brandon Garza,Clute Brazoswood,141.52,249.48,149.69,226.8,625.96,Single-ply,SBD,M
Boys,124.74+,6,Shawnacy Lawson,La Marque,129.27,192.78,142.88,195.04,530.7,Single-ply,SBD,M
Boys,124.74+,7,Anthony Garza,Pasadena Memorial,133.36,145.15,113.4,174.63,433.18,Single-ply,SBD,M
Boys,124.74+,8,Robert Geissen,Danbury,131.09,165.56,92.99,170.1,428.64,Single-ply,SBD,M
Boys,124.74+,9,Aaron Evans,Pasadena Memorial,132.9,149.69,90.72,170.1,410.5,Single-ply,SBD,M
Boys,124.74+,DQ,Marcos Reyes,Stafford,125.19,,,,,Single-ply,SBD,M
Boys,124.74+,DQ,Ray Mendoza,Freeport Brazosport,142.43,231.33,,,,Single-ply,SBD,M
