Division,WeightClassKg,Place,Name,Team,BodyweightKg,Best3SquatKg,Best3BenchKg,Best3DeadliftKg,TotalKg,Equipment,Event,Sex
Boys,51.71,1,Enoch Solis,Edinburg Economedes,48.99,170.1,106.59,158.76,435.45,Single-ply,SBD,M
Boys,51.71,2,Tristan Villarreal,Donna North,49.9,124.74,77.11,136.08,337.93,Single-ply,SBD,M
Boys,51.71,3,Aarron Morin,Edinburg North,48.53,92.99,56.7,115.67,265.35,Single-ply,SBD,M
Boys,55.79,1,Luis Cavazos,Donna North,53.43,145.15,88.45,147.42,381.02,Single-ply,SBD,M
Boys,55.79,2,Isreal Ambriz,Edinburg North,55.34,104.33,65.77,136.08,306.17,Single-ply,SBD,M
Boys,55.79,3,Gabriel Chavez,Lyford,53.52,90.72,52.16,117.93,260.82,Single-ply,SBD,M
Boys,55.79,DQ,Ramiro Yanez,PSJA,53.07,111.13,,,,Single-ply,SBD,M
Boys,55.79,DQ,Fred Mares,Edinburg,54.88,136.08,,,,Single-ply,SBD,M
Boys,59.87,1,Jose Soto,Edinburg Economedes,59.42,204.12,122.47,156.49,483.08,Single-ply,SBD,M
Boys,59.87,2,AJ Trevino,Edinburg,58.51,179.17,117.93,172.37,469.47,Single-ply,SBD,M
Boys,59.87,3,Julian Villanueva,Donna North,59.42,165.56,90.72,192.78,449.06,Single-ply,SBD,M
Boys,59.87,4,San Juan Rodriguez,Edcouch-Elsa,58.51,174.63,88.45,167.83,430.91,Single-ply,SBD,M
Boys,59.87,5,Andy Oceguerra,Edcouch-Elsa,58.06,158.76,68.04,158.76,385.55,Single-ply,SBD,M
Boys,59.87,6,Elijah Zamora,Lyford,58.51,106.59,65.77,120.2,292.57,Single-ply,SBD,M
Boys,59.87,7,Zuriel Garcia,Pharr Valley View,56.7,90.72,63.5,124.74,278.96,Single-ply,SBD,M
Boys,67.13,1,Hugo Gomez,Edinburg North,64.41,226.8,138.35,226.8,591.94,Single-ply,SBD,M
Boys,67.13,2,Jose Serna,Weslaco East,66.22,215.46,127.01,217.72,560.19,Single-ply,SBD,M
Boys,67.13,3,Edgar Martinez #3,Edinburg Vela,66.22,206.38,115.67,183.7,505.76,Single-ply,SBD,M
Boys,67.13,4,Michael Garcia #12,Edinburg Vela,65.32,174.63,111.13,183.7,469.47,Single-ply,SBD,M
Boys,67.13,5,Raven Figaroa,Weslaco East,66.22,158.76,108.86,199.58,467.2,Single-ply,SBD,M
Boys,67.13,6,Joshua Martinez,Hidalgo Early College,63.96,181.44,102.06,181.44,464.93,Single-ply,SBD,M
Boys,67.13,7,Tony Lopez,Donna North,64.86,158.76,102.06,174.63,435.45,Single-ply,SBD,M
Boys,67.13,8,Jose Alvarez,Edinburg,62.6,163.29,90.72,179.17,433.18,Single-ply,SBD,M
Boys,67.13,9,Mario Mancera,Edinburg Economedes,64.86,154.22,92.99,161.03,408.23,Single-ply,SBD,M
Boys,67.13,10,Robert Rivera,La Villa,66.22,174.63,81.65,147.42,403.7,Single-ply,SBD,M
Boys,67.13,11,Tayler McClaugraty,Lyford,61.23,154.22,74.84,149.69,378.75,Single-ply,SBD,M
Boys,67.13,12,Robert Quintanilla,PSJA,62.14,145.15,68.04,117.93,331.12,Single-ply,SBD,M
Boys,67.13,13,Valente Rosas,Lyford,60.78,133.81,61.23,124.74,319.78,Single-ply,SBD,M
Boys,67.13,14,Randall de Leon,Lyford,60.33,120.2,65.77,122.47,308.44,Single-ply,SBD,M
Boys,67.13,DQ,Robert Solis,Edinburg Economedes,65.77,142.88,,,,Single-ply,SBD,M
Boys,67.13,DQ,Jerry Reyes,La Villa,64.41,,,,,Single-ply,SBD,M
Boys,74.84,1,Andrew Solis,Edinburg Vela,74.39,215.46,142.88,215.46,573.79,Single-ply,SBD,M
Boys,74.84,2,Christian Avila,Weslaco East,73.03,219.99,108.86,233.6,562.45,Single-ply,SBD,M
Boys,74.84,3,Javier Pichardo,PSJA,74.39,215.46,122.47,215.46,553.38,Single-ply,SBD,M
Boys,74.84,4,Leo Cuellar,Pharr Valley View,71.67,217.72,136.08,197.31,551.11,Single-ply,SBD,M
Boys,74.84,5,Angel Vasquez,Edinburg Vela,73.94,206.38,145.15,197.31,548.85,Single-ply,SBD,M
Boys,74.84,6,Julio Elizondo,Edinburg,70.76,206.38,106.59,188.24,501.22,Single-ply,SBD,M
Boys,74.84,7,Marco Islas,Edinburg,68.04,197.31,133.81,165.56,496.68,Single-ply,SBD,M
Boys,74.84,8,Miguel Castillo,Edinburg Vela,69.85,179.17,115.67,185.97,480.81,Single-ply,SBD,M
Boys,74.84,9,Brian Tejada #1,Edinburg,71.21,188.24,106.59,183.7,478.54,Single-ply,SBD,M
Boys,74.84,10,Jacob Martinez #5,Hidalgo Early College,71.67,158.76,102.06,170.1,430.91,Single-ply,SBD,M
Boys,74.84,11,Enrique Gracia,Pharr Valley View,74.84,124.74,68.04,113.4,306.17,Single-ply,SBD,M
Boys,74.84,DQ,Jacob Gomez,Weslaco East,73.03,158.76,,,,Single-ply,SBD,M
Boys,82.1,1,Imanol Ordonez,Weslaco East,80.74,244.94,172.37,265.35,682.66,Single-ply,SBD,M
Boys,82.1,2,Jonathan Navarro,Edinburg Vela,80.74,231.33,161.03,219.99,612.35,Single-ply,SBD,M
Boys,82.1,3,Christian Cortina,Donna North,80.29,222.26,122.47,226.8,571.53,Single-ply,SBD,M
Boys,82.1,4,Alejandro Cortez,Edinburg North,77.11,206.38,131.54,226.8,564.72,Single-ply,SBD,M
Boys,82.1,5,Tony Gil,Edcouch-Elsa,82.1,226.8,122.47,188.24,537.51,Single-ply,SBD,M
Boys,82.1,6,Darius Hernandez,La Feria,75.3,204.12,115.67,215.46,535.24,Single-ply,SBD,M
Boys,82.1,7,Jesse Contreras,Edcouch-Elsa,76.66,204.12,104.33,199.58,508.02,Single-ply,SBD,M
Boys,82.1,8,Alex Benavides,Donna North,75.39,190.51,115.67,183.7,489.88,Single-ply,SBD,M
Boys,82.1,9,Felipe Ortega,La Villa,79.38,174.63,147.42,149.69,471.74,Single-ply,SBD,M
Boys,82.1,10,Carlos Olivo,Edinburg North,81.19,142.88,102.06,163.29,408.23,Single-ply,SBD,M
Boys,82.1,11,Mario Sigala,PSJA,80.29,145.15,88.45,149.69,383.29,Single-ply,SBD,M
Boys,82.1,12,Teddie Lozano,Edinburg North,81.65,111.13,90.72,163.29,365.14,Single-ply,SBD,M
Boys,82.1,13,Micheal Zamora,Pharr Valley View,78.93,154.22,86.18,115.67,356.07,Single-ply,SBD,M
Boys,89.81,1,Mario Reyna,Edinburg Economedes,89.36,260.82,151.95,233.6,646.37,Single-ply,SBD,M
Boys,89.81,2,Simon Fernandez,Pharr Valley View,89.81,254.01,151.95,235.87,641.83,Single-ply,SBD,M
Boys,89.81,3,Fred Cardenas,Weslaco East,89.81,226.8,165.56,247.21,639.57,Single-ply,SBD,M
Boys,89.81,4,Aaron Alvarez,Edinburg Vela,89.36,249.48,151.95,201.85,603.28,Single-ply,SBD,M
Boys,89.81,5,Jacob Perez #4,Edcouch-Elsa,88,240.4,122.47,235.87,598.74,Single-ply,SBD,M
Boys,89.81,6,Issac de Anda,Edcouch-Elsa,88.45,240.4,113.4,226.8,580.6,Single-ply,SBD,M
Boys,89.81,7,Avishai Dickerson,La Feria,84.37,215.46,124.74,210.92,551.11,Single-ply,SBD,M
Boys,89.81,8,Matthew Guzman,Edinburg Vela,88.9,219.99,124.74,183.7,528.44,Single-ply,SBD,M
Boys,89.81,9,Robert Sumbillo,Edcouch-Elsa,89.36,199.58,120.2,201.85,521.63,Single-ply,SBD,M
Boys,89.81,10,Jose Flores #5,Pharr Valley View,88.9,197.31,106.59,183.7,487.61,Single-ply,SBD,M
Boys,89.81,11,Aaron Davila,Edinburg North,89.36,165.56,106.59,183.7,455.86,Single-ply,SBD,M
Boys,89.81,12,Adan Rodriguez,Edinburg Economedes,88.45,179.17,88.45,170.1,437.72,Single-ply,SBD,M
Boys,89.81,13,Branden Ochoa,PSJA,87.54,181.44,97.52,145.15,424.11,Single-ply,SBD,M
Boys,99.79,1,Nate Vallejo,Edcouch-Elsa,99.34,263.08,183.7,247.21,694,Single-ply,SBD,M
Boys,99.79,2,Dylan Earhart,Hidalgo Early College,97.98,244.94,156.49,226.8,628.23,Single-ply,SBD,M
Boys,99.79,3,Frank Coronado,Edinburg,96.62,242.67,142.88,238.14,623.69,Single-ply,SBD,M
Boys,99.79,4,Justin Valdez,Edinburg Vela,94.35,229.06,120.2,224.53,573.79,Single-ply,SBD,M
Boys,99.79,5,Victor Luna,La Feria,91.17,226.8,131.54,206.38,564.72,Single-ply,SBD,M
Boys,99.79,6,Tony Gandaria,Donna North,92.99,206.38,136.08,204.12,546.58,Single-ply,SBD,M
Boys,99.79,7,Brando Galvan,Weslaco East,90.72,210.92,117.93,210.92,539.77,Single-ply,SBD,M
Boys,99.79,8,Juan Mendoza #4,Edinburg,97.98,210.92,129.27,199.58,539.77,Single-ply,SBD,M
Boys,99.79,9,Anibal Gomez,Edinburg Economedes,97.07,197.31,129.27,208.65,535.24,Single-ply,SBD,M
Boys,99.79,10,Dylan De La Garza,Edinburg Vela,93.89,206.38,115.67,208.65,530.7,Single-ply,SBD,M
Boys,99.79,11,Alex Yerena,La Feria,94.8,204.12,122.47,204.12,530.7,Single-ply,SBD,M
Boys,99.79,12,Oscar Chavarria,Edinburg North,98.43,192.78,108.86,213.19,514.83,Single-ply,SBD,M
Boys,99.79,13,Brandon Pena,Edinburg Economedes,90.26,219.99,95.25,192.78,508.02,Single-ply,SBD,M
Boys,99.79,14,Dustin Earhart,Hidalgo Early College,96.62,197.31,111.13,170.1,478.54,Single-ply,SBD,M
Boys,99.79,15,Moises Pedraza,PSJA,96.62,195.04,102.06,167.83,464.93,Single-ply,SBD,M
Boys,99.79,16,Noe Castillo,Weslaco East,97.07,192.78,104.33,158.76,455.86,Single-ply,SBD,M
Boys,99.79,17,Rudy De Leon,La Feria,94.35,181.44,106.59,158.76,446.79,Single-ply,SBD,M
Boys,99.79,18,Jose Morales,Weslaco East,93.89,158.76,102.06,156.49,417.3,Single-ply,SBD,M
Boys,99.79,19,Henry Rocha,Lyford,93.89,65.77,70.31,117.93,254.01,Single-ply,SBD,M
Boys,99.79,DQ,Aja Hernandez,La Feria,92.99,170.1,,,,Single-ply,SBD,M
Boys,99.79,DQ,Juan Flores,PSJA,97.98,290.3,,,,Single-ply,SBD,M
Boys,109.77,1,Jacob Banda,Weslaco East,109.32,294.84,192.78,290.3,777.91,Single-ply,SBD,M
Boys,109.77,2,Cody Alvarado,Edcouch-Elsa,108.41,312.98,190.51,256.28,759.77,Single-ply,SBD,M
Boys,109.77,3,Matthew Alfaro,Edinburg Economedes,107.95,272.16,156.49,226.8,655.44,Single-ply,SBD,M
Boys,109.77,4,Joey Ramirez,La Villa,107.05,283.5,183.7,185.97,653.17,Single-ply,SBD,M
Boys,109.77,5,Fernando Reyna,Donna North,102.06,238.14,156.49,247.21,641.83,Single-ply,SBD,M
Boys,109.77,6,Fabian Martinez,Donna North,104.33,265.35,136.08,226.8,628.23,Single-ply,SBD,M
Boys,109.77,7,Emmanuel Cepeda,Lyford,100.7,256.28,133.81,226.8,616.89,Single-ply,SBD,M
Boys,109.77,8,Ramon Cuellar,Pharr Valley View,107.95,254.01,145.15,192.78,591.94,Single-ply,SBD,M
Boys,109.77,9,Pablo Rodriguez,Edinburg North,107.05,226.8,151.95,210.92,589.67,Single-ply,SBD,M
Boys,109.77,10,Agustin Villegas,Edinburg Economedes,103.42,210.92,124.74,215.46,551.11,Single-ply,SBD,M
Boys,109.77,11,Jarek Gonzalez,Hidalgo Early College,109.77,217.72,124.74,201.85,544.31,Single-ply,SBD,M
Boys,109.77,12,Joseph Guerra,Edinburg Economedes,108.41,201.85,133.81,204.12,539.77,Single-ply,SBD,M
Boys,109.77,13,Tony Marroquin,La Feria,105.23,195.04,115.67,183.7,494.42,Single-ply,SBD,M
Boys,124.74,1,Isai Martinez,Weslaco East,123.38,278.96,199.58,251.74,730.28,Single-ply,SBD,M
Boys,124.74,2,Imanol Rodriguez,Edcouch-Elsa,119.29,272.16,183.7,233.6,689.46,Single-ply,SBD,M
Boys,124.74,3,Shayne Hernandez,Edinburg,117.93,240.4,142.88,226.8,610.08,Single-ply,SBD,M
Boys,124.74,4,Luis Trevino,Edinburg,115.21,260.82,136.08,204.12,601.01,Single-ply,SBD,M
Boys,124.74,5,Robert Garza,PSJA,116.57,226.8,142.88,204.12,573.79,Single-ply,SBD,M
Boys,124.74,6,Aaron Noriega,PSJA,120.2,,124.74,174.63,299.37,Single-ply,BD,M
Boys,124.74+,1,David Garza,Edinburg Vela,127.46,258.55,147.42,242.67,648.64,Single-ply,SBD,M
Boys,124.74+,2,Jason Vaquez,Edcouch-Elsa,130.63,215.46,136.08,213.19,564.72,Single-ply,SBD,M
Boys,124.74+,3,Jose Resendez,Donna North,125.19,206.38,115.67,190.51,512.56,Single-ply,SBD,M
Boys,124.74+,4,Fidel Carr,Edinburg North,151.05,165.56,108.86,197.31,471.74,Single-ply,SBD,M
Boys,124.74+,5,Christopher Rivera,Weslaco East,130.18,195.04,108.86,156.49,460.4,Single-ply,SBD,M
Boys,124.74+,6,David Garza,Hidalgo Early College,141.97,183.7,115.67,151.95,451.32,Single-ply,SBD,M
